Clase 3. Autocorrelacion y otras pruebas sobre los datos
…
## tibble [259  6] (S3: tbl_df/tbl/data.frame)
##  $ Periodo  : POSIXct[1:259], format: "2000-01-01" "2000-02-01" ...
##  $ Pax_Nal  : num [1:259] 1378244 1318075 1476646 1426550 1529293 ...
##  $ Pax_Int  : num [1:259] 672734 649382 750587 718826 663015 ...
##  $ Vue_Nal  : num [1:259] 30290 28291 31031 29896 31382 ...
##  $ Vue_Int  : num [1:259] 7812 7440 8036 7886 7498 ...
##  $ Pax_Metro: num [1:259] 112 112 121 106 118 ...

dim(Datos)

## [1] 259   6

Datos[ , 2]

## # A tibble: 259 x 1
##    Pax_Nal
##      <dbl>
##  1 1378244
##  2 1318075
##  3 1476646
##  4 1426550
##  5 1529293
##  6 1427266
##  7 1664868
##  8 1621475
##  9 1337000
## 10 1433870
## #  with 249 more rows

Datos[5 , ]

## # A tibble: 1 x 6
##   Periodo             Pax_Nal Pax_Int Vue_Nal Vue_Int Pax_Metro
##   <dttm>                <dbl>   <dbl>   <dbl>   <dbl>     <dbl>
## 1 2000-05-01 00:00:00 1529293  663015   31382    7498      118.

Datos[c(2:259) , 2]

## # A tibble: 258 x 1
##    Pax_Nal
##      <dbl>
##  1 1318075
##  2 1476646
##  3 1426550
##  4 1529293
##  5 1427266
##  6 1664868
##  7 1621475
##  8 1337000
##  9 1433870
## 10 1478113
## #  with 248 more rows

Datos[ , c(2:6)]

## # A tibble: 259 x 5
##    Pax_Nal Pax_Int Vue_Nal Vue_Int Pax_Metro
##      <dbl>   <dbl>   <dbl>   <dbl>     <dbl>
##  1 1378244  672734   30290    7812      112.
##  2 1318075  649382   28291    7440      112.
##  3 1476646  750587   31031    8036      121.
##  4 1426550  718826   29896    7886      106.
##  5 1529293  663015   31382    7498      118.
##  6 1427266  633091   30514    7351      118.
##  7 1664868  825149   32367    7690      115.
##  8 1621475  776788   33004    7861      122.
##  9 1337000  597435   30517    7519      117.
## 10 1433870  604420   31999    7874      122.
## #  with 249 more rows

Datos[ , c(2, 3, 4, 5, 6)]

## # A tibble: 259 x 5
##    Pax_Nal Pax_Int Vue_Nal Vue_Int Pax_Metro
##      <dbl>   <dbl>   <dbl>   <dbl>     <dbl>
##  1 1378244  672734   30290    7812      112.
##  2 1318075  649382   28291    7440      112.
##  3 1476646  750587   31031    8036      121.
##  4 1426550  718826   29896    7886      106.
##  5 1529293  663015   31382    7498      118.
##  6 1427266  633091   30514    7351      118.
##  7 1664868  825149   32367    7690      115.
##  8 1621475  776788   33004    7861      122.
##  9 1337000  597435   30517    7519      117.
## 10 1433870  604420   31999    7874      122.
## #  with 249 more rows

Datos[c("Pax_Nal", "Pax_Int", "Vue_Nal", "Vue_Int")]

## # A tibble: 259 x 4
##    Pax_Nal Pax_Int Vue_Nal Vue_Int
##      <dbl>   <dbl>   <dbl>   <dbl>
##  1 1378244  672734   30290    7812
##  2 1318075  649382   28291    7440
##  3 1476646  750587   31031    8036
##  4 1426550  718826   29896    7886
##  5 1529293  663015   31382    7498
##  6 1427266  633091   30514    7351
##  7 1664868  825149   32367    7690
##  8 1621475  776788   33004    7861
##  9 1337000  597435   30517    7519
## 10 1433870  604420   31999    7874
## #  with 249 more rows
…
